e_d;psi;sigma;delta_G;xi
1e-05;0.0049916666666721;0.226099999999999;0.333472454052685;0.000999000999000999
2e-05;0.00996666666666764;0.451066666666666;0.333612040126726;0.001996007984031936
3e-05;0.0149250000000001;0.674900000000001;0.333752093804106;0.00299102691924227
4e-05;0.0198666666666641;0.897600000000001;0.333892617450613;0.00398406374501992
5e-05;0.0247916666666672;1.11916666666667;0.334033613446188;0.004975124378109453
6e-05;0.0297000000000011;1.3396;0.334175084175308;0.005964214711729622
7e-05;0.0345916666666655;1.5589;0.334317032040481;0.00695134061569017
8e-05;0.0394666666666665;1.77706666666667;0.334459459459637;0.007936507936507936
9e-05;0.0443249999999997;1.9941;0.334602368866299;0.0089197224975223
0.0001;0.0491666666666665;2.21;0.334745762711862;0.009900990099009901
0.00011;0.0539916666666657;2.42476666666667;0.334889643463517;0.0108803165182987
0.00012;0.0587999999999996;2.6384;0.335034013605433;0.011857707509881422
0.00013;0.0635916666666676;2.8509;0.335178875638822;0.0128331688055281
0.00014;0.0683666666666674;3.06226666666667;0.33532423208189;0.013806706114398421
0.00015;0.0731249999999999;3.2725;0.335470085470063;0.014778325123152709
0.00016;0.0778666666666666;3.4816;0.33561643835615;0.015748031496062992
0.00017;0.0825916666666674;3.68956666666666;0.335763293310439;0.0167158308751229
0.00018;0.0873000000000004;3.8964;0.335910652920949;0.01768172888015717
0.00019;0.0919916666666665;4.1021;0.33605851979346;0.0186457311089303
0.0002;0.0966666666666667;4.30666666666666;0.336206896551707;0.0196078431372549
0.00021;0.101325;4.5101;0.336355785837649;0.0205680705190989
0.00022;0.105966666666667;4.7124;0.33650519031141;0.021526418786692758
0.00023;0.110591666666667;4.91356666666666;0.33665511265164;0.0224828934506354
0.00024;0.1152;5.1136;0.336805555555555;0.0234375
0.00025;0.119791666666667;5.3125;0.336956521739126;0.024390243902439025
0.00026;0.124366666666667;5.51026666666667;0.337108013937278;0.025341130604288498
0.00027;0.128925;5.7069;0.337260034904017;0.0262901655306719
0.00028;0.133466666666667;5.9024;0.337412587412591;0.027237354085603113
0.00029;0.137991666666667;6.09676666666667;0.337565674255697;0.0281827016520894
0.0003;0.1425;6.29;0.337719298245616;0.02912621359223301
0.00031;0.146991666666667;6.4821;0.337873462214411;0.0300678952473327
0.00032;0.151466666666666;6.67306666666667;0.338028169014088;0.031007751937984496
0.00033;0.155925;6.8629;0.338183421516754;0.031945788964182
0.00034;0.160366666666667;7.0516;0.338339222614842;0.03288201160541586
0.00035;0.164791666666667;7.23916666666667;0.33849557522124;0.033816425120772944
0.00036;0.1692;7.4256;0.338652482269505;0.03474903474903475
0.00037;0.173591666666667;7.6109;0.338809946714031;0.0356798457087753
0.00038;0.177966666666667;7.79506666666666;0.338967971530247;0.036608863198458574
0.00039;0.182325;7.9781;0.339126559714796;0.0375360923965351
0.0004;0.18666666666666668;8.16;0.339285714285711;0.038461538461538464
0.00041;0.190991666666667;8.34076666666667;0.339445438282647;0.0393852065321806
0.00042;0.1953;8.5204;0.339605734767024;0.04030710172744722
0.00043;0.199591666666667;8.6989;0.339766606822262;0.0412272291466922
0.00044;0.203866666666667;8.87626666666667;0.339928057553956;0.0421455938697318
0.00045;0.208125;9.0525;0.34009009009009;0.0430622009569378
0.00046;0.212366666666667;9.2276;0.340252707581228;0.04397705544933078
0.00047;0.216591666666667;9.40156666666667;0.340415913200723;0.0448901623686724
0.00048;0.2208;9.5744;0.34057971014492755;0.04580152671755725
0.00049;0.224991666666667;9.7461;0.340744101633394;0.0467111534795043
0.0005;0.22916666666666666;9.916666666666666;0.3409090909090909;0.047619047619047616
0.00051;0.233325;10.0861;0.341074681238616;0.0485252140818268
0.00052;0.237466666666667;10.2544;0.341240875912409;0.049429657794676805
0.00053;0.241591666666667;10.4215666666667;0.341407678244972;0.050332383665717
0.00054;0.2457;10.5876;0.341575091575092;0.051233396584440226
0.00055;0.249791666666667;10.7525;0.341743119266055;0.052132701421800945
0.00056;0.253866666666667;10.9162666666667;0.34191176470588236;0.05303030303030303
0.00057;0.257925;11.0789;0.34208103130755;0.053926206244087
0.00058;0.261966666666667;11.2404;0.342250922509225;0.054820415879017016
0.00059;0.265991666666667;11.4007666666667;0.342421441774492;0.0557129367327668
0.0006;0.27;11.56;0.3425925925925926;0.05660377358490566
0.00061;0.273991666666667;11.7181;0.342764378478664;0.057492931196984
0.00062;0.277966666666667;11.8750666666667;0.342936802973978;0.0583804143126177
0.00063;0.281925;12.0309;0.343109869646182;0.0592662276575729
0.00064;0.285866666666667;12.1856;0.34328358208955223;0.06015037593984962
0.00065;0.289791666666667;12.3391666666667;0.343457943925233;0.06103286384976526
0.00066;0.2937;12.4916;0.343632958801498;0.06191369606003752
0.00067;0.297591666666667;12.6429;0.343808630393996;0.0627928772258669
0.00068;0.301466666666667;12.7930666666667;0.343984962406015;0.06367041198501873
0.00069;0.305325;12.9421;0.344161958568738;0.0645463049579046
0.0007;0.309166666666667;13.09;0.3443396226415094;0.06542056074766354
0.00071;0.312991666666667;13.2367666666667;0.3445179584120983;0.0662931839402428
0.00072;0.3168;13.3824;0.34469696969697;0.06716417910447761
0.00073;0.320591666666667;13.5269;0.344876660341556;0.0680335507921715
0.00074;0.324366666666667;13.6702666666667;0.345057034220533;0.06890130353817504
0.00075;0.328125;13.8125;0.34523809523809523;0.06976744186046512
0.00076;0.331866666666667;13.9536;0.345419847328244;0.07063197026022305
0.00077;0.335591666666667;14.0935666666667;0.345602294455067;0.0714948932219127
0.00078;0.3393;14.2324;0.345785440613027;0.07235621521335807
0.00079;0.342991666666667;14.3701;0.345969289827255;0.0732159406858202
0.0008;0.3466666666666667;14.5066666666667;0.34615384615384615;0.07407407407407407
0.00081;0.350325;14.6421;0.346339113680154;0.0749306197964847
0.00082;0.353966666666667;14.7764;0.346525096525096;0.07578558225508318
0.00083;0.357591666666667;14.9095666666667;0.346711798839459;0.0766389658356417
0.00084;0.3612;15.0416;0.346899224806202;0.07749077490774908
0.00085;0.364791666666667;15.1725;0.347087378640777;0.07834101382488479
0.00086;0.368366666666667;15.3022666666667;0.34727626459144;0.07918968692449356
0.00087;0.371925;15.4309;0.347465886939571;0.0800367985280589
0.00088;0.375466666666667;15.5584;0.34765625;0.08088235294117647
0.00089;0.378991666666667;15.6847666666667;0.347847358121331;0.0817263544536272
0.0009;0.3825;15.81;0.3480392156862745;0.08256880733944955
0.00091;0.385991666666667;15.9341;0.348231827111984;0.0834097158570119
0.00092;0.389466666666667;16.0570666666667;0.348425196850394;0.08424908424908426
0.00093;0.392925;16.1789;0.34861932938856;0.0850869167429094
0.00094;0.396366666666667;16.2996;0.348814229249012;0.08592321755027423
0.00095;0.399791666666667;16.4191666666667;0.349009900990099;0.0867579908675799
0.00096;0.4032;16.5376;0.3492063492063492;0.08759124087591241
0.00097;0.406591666666667;16.6549;0.349403578528827;0.0884229717411121
0.00098;0.409966666666667;16.7710666666667;0.349601593625498;0.08925318761384335
0.00099;0.413325;16.8861;0.349800399201597;0.0900818926296633
0.001;0.4166666666666667;17.0;0.35;0.09090909090909091
0.00101;0.419991666666667;17.1127666666667;0.350200400801603;0.0917347865576748
0.00102;0.4233;17.2244;0.350401606425703;0.0925589836660617
0.00103;0.426591666666667;17.3349;0.350603621730382;0.0933816863100635
0.00104;0.429866666666667;17.4442666666667;0.350806451612903;0.09420289855072464
0.00105;0.433125;17.5525;0.351010101010101;0.09502262443438914
0.00106;0.436366666666667;17.6596;0.351214574898785;0.09584086799276673
0.00107;0.439591666666667;17.7655666666667;0.351419878296146;0.0966576332429991
0.00108;0.4428;17.8704;0.351626016260163;0.09747292418772563
0.00109;0.445991666666667;17.9741;0.35183299389002;0.0982867448151488
0.0011;0.449166666666667;18.0766666666667;0.352040816326531;0.0990990990990991
0.00111;0.452325;18.1781;0.352249488752556;0.0999099909990999
0.00112;0.455466666666667;18.2784;0.3524590163934426;0.10071942446043165
0.00113;0.458591666666667;18.3775666666667;0.352669404517454;0.101527403414196
0.00114;0.4617;18.4756;0.35288065843621397;0.10233393177737882
0.00115;0.464791666666667;18.5725;0.353092783505154;0.1031390134529148
0.00116;0.467866666666667;18.6682666666667;0.353305785123967;0.1039426523297491
0.00117;0.470925;18.7629;0.35351966873706;0.104744852282901
0.00118;0.473966666666667;18.8564;0.353734439834025;0.10554561717352415
0.00119;0.476991666666667;18.9487666666667;0.353950103950104;0.106344950848972
0.0012;0.48;19.04;0.3541666666666667;0.10714285714285714
0.00121;0.482991666666667;19.1301;0.354384133611691;0.107939339875111
0.00122;0.485966666666667;19.2190666666667;0.354602510460251;0.10873440285204991
0.00123;0.488925;19.3069;0.35482180293501;0.109528049866429
0.00124;0.491866666666667;19.3936;0.355042016806723;0.1103202846975089
0.00125;0.4947916666666667;19.479166666666668;0.355263157894737;0.1111111111111111
0.00126;0.4977;19.5636;0.35548523206751;0.11190053285968028
0.00127;0.500591666666667;19.6469;0.355708245243129;0.112688553682342
0.00128;0.503466666666667;19.7290666666667;0.3559322033898305;0.11347517730496454
0.00129;0.506325;19.8101;0.356157112526539;0.114260407440213
0.0013;0.509166666666667;19.89;0.356382978723404;0.11504424778761062
0.00131;0.511991666666667;19.9687666666667;0.356609808102345;0.115826702033599
0.00132;0.5148;20.0464;0.356837606837607;0.1166077738515901
0.00133;0.517591666666667;20.1229;0.357066381156317;0.11738746690203
0.00134;0.520366666666667;20.1982666666667;0.357296137339056;0.11816578483245149
0.00135;0.523125;20.2725;0.35752688172043;0.11894273127753303
0.00136;0.525866666666667;20.3456;0.357758620689655;0.11971830985915492
0.00137;0.528591666666667;20.4175666666667;0.357991360691145;0.120492524186456
0.00138;0.5313;20.4884;0.3582251082251082;0.12126537785588752
0.00139;0.533991666666667;20.5581;0.358459869848156;0.122036874451273
0.0014;0.536666666666667;20.6266666666667;0.358695652173913;0.12280701754385964
0.00141;0.539325;20.6941;0.358932461873638;0.123575810692375
0.00142;0.541966666666667;20.7604;0.359170305676856;0.1243432574430823
0.00143;0.544591666666667;20.8255666666667;0.359409190371991;0.125109361329834
0.00144;0.5472;20.8896;0.359649122807017;0.1258741258741259
0.00145;0.549791666666667;20.9525;0.35989010989011;0.12663755458515283
0.00146;0.552366666666667;21.0142666666667;0.360132158590308;0.1273996509598604
0.00147;0.554925;21.0749;0.36037527593819;0.128160418482999
0.00148;0.557466666666667;21.1344;0.360619469026549;0.1289198606271777
0.00149;0.559991666666667;21.1927666666667;0.360864745011086;0.129677980852916
0.0015;0.5625;21.25;0.3611111111111111;0.13043478260869565
0.00151;0.564991666666667;21.3061;0.361358574610245;0.131190269331017
0.00152;0.567466666666667;21.3610666666667;0.36160714285714285;0.13194444444444445
0.00153;0.569925;21.4149;0.361856823266219;0.132697311361665
0.00154;0.572366666666667;21.4676;0.362107623318386;0.133448873483536
0.00155;0.574791666666667;21.5191666666667;0.362359550561798;0.1341991341991342
0.00156;0.5772;21.5696;0.362612612612613;0.13494809688581316
0.00157;0.579591666666667;21.6189;0.362866817155756;0.135695764909248
0.00158;0.581966666666667;21.6670666666667;0.363122171945701;0.13644214162348878
0.00159;0.584325;21.7141;0.363378684807256;0.137187230371009
0.0016;0.5866666666666667;21.76;0.36363636363636365;0.13793103448275862
0.00161;0.588991666666667;21.8047666666667;0.363895216400911;0.138673557278208
0.00162;0.5913;21.8484;0.364155251141553;0.13941480206540446
0.00163;0.593591666666667;21.8909;0.36441647597254;0.140154772141015
0.00164;0.595866666666667;21.9322666666667;0.364678899082569;0.140893470790378
0.00165;0.598125;21.9725;0.364942528735632;0.14163090128755365
0.00166;0.600366666666667;22.0116;0.36520737327189;0.1423670668953688
0.00167;0.602591666666667;22.0495666666667;0.365473441108545;0.143101970865467
0.00168;0.6048;22.0864;0.36574074074074076;0.14383561643835616
0.00169;0.606991666666667;22.1221;0.366009280742459;0.144568006843456
0.0017;0.609166666666667;22.1566666666667;0.36627906976744184;0.1452991452991453
0.00171;0.611325;22.1901;0.366550116550117;0.14602903501281
0.00172;0.613466666666667;22.2224;0.366822429906542;0.14675767918088736
0.00173;0.615591666666667;22.2535666666667;0.367096018735363;0.147485080988917
0.00174;0.6177;22.2836;0.367370892018779;0.148211243611584
0.00175;0.619791666666667;22.3125;0.36764705882352944;0.14893617021276595
0.00176;0.621866666666667;22.3402666666667;0.367924528301887;0.14965986394557823
0.00177;0.623925;22.3669;0.368203309692671;0.150382327952421
0.00178;0.625966666666667;22.3924;0.368483412322275;0.151103565365025
0.00179;0.627991666666667;22.4167666666667;0.368764845605701;0.151823579304495
0.0018;0.63;22.44;0.36904761904761907;0.15254237288135594
0.00181;0.631991666666667;22.4621;0.369331742243437;0.153259949195597
0.00182;0.633966666666667;22.4830666666667;0.369617224880383;0.153976311336717
0.00183;0.635925;22.5029;0.369904076738609;0.15469146238377
0.00184;0.637866666666667;22.5216;0.370192307692308;0.1554054054054054
0.00185;0.639791666666667;22.5391666666667;0.370481927710843;0.15611814345991562
0.00186;0.6417;22.5556;0.370772946859903;0.15682967959527824
0.00187;0.643591666666667;22.5709;0.371065375302663;0.1575400168492
0.00188;0.645466666666667;22.5850666666667;0.371359223300971;0.15824915824915825
0.00189;0.647325;22.5981;0.371654501216545;0.158957106812447
0.0019;0.649166666666667;22.61;0.3719512195121951;0.15966386554621848
0.00191;0.650991666666667;22.6207666666667;0.372249388753056;0.160369437447523
0.00192;0.6528;22.6304;0.37254901960784315;0.1610738255033557
0.00193;0.654591666666667;22.6389;0.372850122850123;0.161777032690696
0.00194;0.656366666666667;22.6462666666667;0.373152709359606;0.162479061976549
0.00195;0.658125;22.6525;0.3734567901234568;0.16317991631799164
0.00196;0.659866666666667;22.6576;0.37376237623762376;0.163879598662207
0.00197;0.661591666666667;22.6615666666667;0.374069478908189;0.164578111946533
0.00198;0.6633;22.6644;0.374378109452736;0.165275459098497
0.00199;0.664991666666667;22.6661;0.374688279301746;0.165971643035863
0.002;0.6666666666666666;22.666666666666668;0.375;0.16666666666666666
0.00201;0.66832504145937;22.666666666666668;0.375313260002716;0.167360532889259
0.00202;0.66996699669967;22.666666666666668;0.375627956884358;0.168053244592346
0.00203;0.671592775041051;22.666666666666668;0.375943970033844;0.168744804655029
0.00204;0.673202614379085;22.666666666666668;0.376261184085285;0.169435215946844
0.00205;0.6747967479674797;22.666666666666668;0.376579488686453;0.170124481327801
0.00206;0.676375404530745;22.666666666666668;0.376898778278441;0.17081260364842454
0.00207;0.677938808373591;22.666666666666668;0.377218951885894;0.171499585749793
0.00208;0.6794871794871795;22.666666666666668;0.377539912917271;0.17218543046357615
0.00209;0.681020733652313;22.666666666666668;0.377861568974597;0.172870140612076
0.0021;0.6825396825396826;22.666666666666668;0.378183831672204;0.17355371900826447
0.00211;0.684044233807267;22.666666666666668;0.378506616463995;0.174236168455822
0.00212;0.6855345911949685;22.666666666666668;0.378829842478795;0.174917491749175
0.00213;0.687010954616588;22.666666666666668;0.379153432363353;0.175597691673537
0.00214;0.688473520249221;22.666666666666668;0.379477312132617;0.176276771004942
0.00215;0.689922480620155;22.666666666666668;0.379801411026914;0.176954732510288
0.00216;0.691358024691358;22.666666666666668;0.380125661375661;0.17763157894736842
0.00217;0.692780337941628;22.666666666666668;0.380449998467308;0.178307313064914
0.00218;0.694189602446483;22.666666666666668;0.380774360425171;0.17898193760262726
0.00219;0.69558599695586;22.666666666666668;0.381098688088886;0.179655455291222
0.0022;0.696969696969697;22.666666666666668;0.381422924901186;0.18032786885245902
0.00221;0.698340874811463;22.666666666666668;0.381747016799742;0.180999180999181
0.00222;0.6996996996997;22.666666666666668;0.382070912113831;0.181669394435352
0.00223;0.701046337817638;22.666666666666668;0.382394561465574;0.182338511856092
0.00224;0.7023809523809523;22.666666666666668;0.382717917675545;0.1830065359477124
0.00225;0.7037037037037037;22.666666666666668;0.383040935672515;0.1836734693877551
0.00226;0.705014749262537;22.666666666666668;0.383363572407154;0.184339314845024
0.00227;0.706314243759178;22.666666666666668;0.383685786769487;0.185004074979625
0.00228;0.7076023391812866;22.666666666666668;0.384007539509932;0.185667752442997
0.00229;0.708879184861718;22.666666666666668;0.384328793163742;0.18633034987795
0.0023;0.7101449275362319;22.666666666666668;0.384649511978705;0.18699186991869918
0.00231;0.711399711399711;22.666666666666668;0.38496966184593;0.187652315190902
0.00232;0.7126436781609196;22.666666666666668;0.385289210233593;0.18831168831168832
0.00233;0.713876967095851;22.666666666666668;0.385608126123492;0.1889699918897
0.00234;0.715099715099715;22.666666666666668;0.385926379950284;0.189627228525122
0.00235;0.7163120567375887;22.666666666666668;0.386243943543291;0.1902834008097166
0.00236;0.717514124293785;22.666666666666668;0.386560790070733;0.19093851132686085
0.00237;0.718706047819972;22.666666666666668;0.38687689398631;0.191592562651576
0.00238;0.719887955182073;22.666666666666668;0.387192230977994;0.192245557350565
0.00239;0.721059972105997;22.666666666666668;0.387506777918956;0.192897497982244
0.0024;0.7222222222222222;22.666666666666668;0.387820512820513;0.1935483870967742
0.00241;0.723374827109267;22.666666666666668;0.388133414787017;0.1941982272361
0.00242;0.7245179063360881;22.666666666666668;0.388445463972598;0.19484702093397746
0.00243;0.7256515775034293;22.666666666666668;0.38875664153967;0.19549477071601
0.00244;0.726775956284153;22.666666666666668;0.38906692961913;0.19614147909967847
0.00245;0.7278911564625851;22.666666666666668;0.389376311272172;0.19678714859437751
0.00246;0.7289972899729;22.666666666666668;0.389684770453653;0.19743178170144463
0.00247;0.730094466936572;22.666666666666668;0.389992291976921;0.198075380914194
0.00248;0.7311827956989247;22.666666666666668;0.390298861480076;0.1987179487179487
0.00249;0.7322623828647925;22.666666666666668;0.390604465393567;0.199359487590072
0.0025;0.7333333333333333;22.666666666666668;0.39090909090909093;0.2
0.00251;0.734395750332005;22.666666666666668;0.391212725949727;0.200639488409273
0.00252;0.7354497354497355;22.666666666666668;0.391515359141259;0.2012779552715655
0.00253;0.736495388669302;22.666666666666668;0.391816979784624;0.201915403032721
0.00254;0.73753280839895;22.666666666666668;0.392117577829462;0.202551834130781
0.00255;0.738562091503268;22.666666666666668;0.39241714384869;0.20318725099601595
0.00256;0.7395833333333334;22.666666666666668;0.392715669014085;0.20382165605095542
0.00257;0.740596627756161;22.666666666666668;0.393013145072812;0.204455051710422
0.00258;0.741602067183463;22.666666666666668;0.393309564324879;0.205087440381558
0.00259;0.742599742599743;22.666666666666668;0.393604919601453;0.20571882446386
0.0026;0.7435897435897436;22.666666666666668;0.393899204244032;0.20634920634920634
0.00261;0.744572158365262;22.666666666666668;0.39419241208441;0.206978588421887
0.00262;0.745547073791349;22.666666666666668;0.394484537425423;0.207606973058637
0.00263;0.746514575411914;22.666666666666668;0.394775575022433;0.208234362628662
0.00264;0.7474747474747475;22.666666666666668;0.39506552006552;0.2088607594936709
0.00265;0.7484276729559748;22.666666666666668;0.395354368162359;0.20948616600790515
0.00266;0.74937343358396;22.666666666666668;0.395642115321749;0.210110584518167
0.00267;0.750312109862672;22.666666666666668;0.395928757937769;0.210734017363852
0.00268;0.751243781094527;22.666666666666668;0.396214292774538;0.211356466876972
0.00269;0.752168525402726;22.666666666666668;0.39649871695155;0.211977935382191
0.0027;0.7530864197530864;22.666666666666668;0.396782027929569;0.2125984251968504
0.00271;0.7539975399754;22.666666666666668;0.397064223497047;0.213217938630999
0.00272;0.7549019607843137;22.666666666666668;0.397345301757067;0.2138364779874214
0.00273;0.755799755799756;22.666666666666668;0.39762526111476;0.214454045561665
0.00274;0.75669099756691;22.666666666666668;0.397904100265215;0.215070643642072
0.00275;0.7575757575757576;22.666666666666668;0.398181818181818;0.21568627450980393
0.00276;0.758454106280193;22.666666666666668;0.398458414105049;0.216300940438871
0.00277;0.759326113116727;22.666666666666668;0.398733887531681;0.216914643696163
0.00278;0.760191846522782;22.666666666666668;0.399008238204389;0.217527386541471
0.00279;0.7610513739546;22.666666666666668;0.399281466101743;0.218139171227522
0.0028;0.7619047619047619;22.666666666666668;0.399553571428571;0.21875
0.00281;0.762752075919336;22.666666666666668;0.399824554606687;0.21935987509758
0.00282;0.763593380614657;22.666666666666668;0.400094416265946;0.21996879875195008
0.00283;0.764428739693757;22.666666666666668;0.400363157235649;0.220576773187841
0.00284;0.765258215962441;22.666666666666668;0.400630778536248;0.221183800623053
0.00285;0.7660818713450293;22.666666666666668;0.400897281371367;0.22178988326848248
0.00286;0.766899766899767;22.666666666666668;0.401162667120114;0.222395023328149
0.00287;0.767711962833914;22.666666666666668;0.401426937329672;0.222999222999223
0.00288;0.7685185185185185;22.666666666666668;0.401690093708166;0.2236024844720497
0.00289;0.769319492502884;22.666666666666668;0.401952138117792;0.224204809930178
0.0029;0.7701149425287356;22.666666666666668;0.402213072568193;0.2248062015503876
0.00291;0.770904925544101;22.666666666666668;0.402472899210082;0.225406661502711
0.00292;0.771689497716895;22.666666666666668;0.402731620329091;0.226006191950464
0.00293;0.772468714448237;22.666666666666668;0.402989238339859;0.226604795050271
0.00294;0.773242630385488;22.666666666666668;0.403245755780318;0.227202472952087
0.00295;0.774011299435028;22.666666666666668;0.403501175306198;0.2277992277992278
0.00296;0.7747747747747747;22.666666666666668;0.403755499685732;0.22839506172839505
0.00297;0.775533108866442;22.666666666666668;0.404008731794549;0.228989976869699
0.00298;0.776286353467562;22.666666666666668;0.404260874610758;0.229583975346687
0.00299;0.7770345596432553;22.666666666666668;0.404511931210203;0.230177059276366
0.003;0.7777777777777778;22.666666666666668;0.40476190476190477;0.23076923076923078
0.00301;0.778516057585825;22.666666666666668;0.405010798523651;0.231360491929285
0.00302;0.77924944812362;22.666666666666668;0.405258615837758;0.23195084485407066
0.00303;0.77997799779978;22.666666666666668;0.405505360126986;0.232540291634689
0.00304;0.7807017543859649;22.666666666666668;0.405751034890597;0.2331288343558282
0.00305;0.7814207650273224;22.666666666666668;0.405995643700562;0.23371647509578544
0.00306;0.782135076252723;22.666666666666668;0.406239190197899;0.2343032159264931
0.00307;0.782844733984799;22.666666666666668;0.406481678089154;0.234889058913542
0.00308;0.7835497835497836;22.666666666666668;0.406723111143001;0.235474006116208
0.00309;0.784250269687163;22.666666666666668;0.406963493186968;0.236058059587471
0.0031;0.7849462365591398;22.666666666666668;0.407202828104286;0.2366412213740458
0.00311;0.785637727759914;22.666666666666668;0.40744111983085;0.2372234935164
0.00312;0.7863247863247863;22.666666666666668;0.407678372352286;0.23780487804878048
0.00313;0.787007454739084;22.666666666666668;0.407914589701133;0.238385376999238
0.00314;0.787685774946921;22.666666666666668;0.408149775954126;0.23896499238965
0.00315;0.788359788359788;22.666666666666668;0.408383935229573;0.23954372623574144
0.00316;0.7890295358649789;22.666666666666668;0.408617071684831;0.240121580547112
0.00317;0.789695057833859;22.666666666666668;0.408849189513876;0.240698557327259
0.00318;0.790356394129979;22.666666666666668;0.409080292944965;0.241274658573596
0.00319;0.791013584117032;22.666666666666668;0.409310386238369;0.241849886277483
0.0032;0.7916666666666666;22.666666666666668;0.409539473684211;0.24242424242424243
0.00321;0.792315680166147;22.666666666666668;0.409767559600364;0.242997728993187
0.00322;0.79296066252588;22.666666666666668;0.409994648330441;0.24357034795764
0.00323;0.79360165118679;22.666666666666668;0.410220744241849;0.244142101284958
0.00324;0.794238683127572;22.666666666666668;0.410445851723917;0.24471299093655588
0.00325;0.7948717948717948;22.666666666666668;0.410669975186104;0.24528301886792453
0.00326;0.7955010224948875;22.666666666666668;0.410893119056256;0.245852187028658
0.00327;0.796126401630989;22.666666666666668;0.411115287778939;0.246420497362472
0.00328;0.7967479674796748;22.666666666666668;0.411336485813838;0.2469879518072289
0.00329;0.797365754812563;22.666666666666668;0.4115567176342;0.247554552294959
0.0033;0.797979797979798;22.666666666666668;0.411775987725355;0.24812030075187969
0.00331;0.798590130916415;22.666666666666668;0.411994300583276;0.248685199098422
0.00332;0.799196787148594;22.666666666666668;0.412211660713205;0.249249249249249
0.00333;0.7997997997998;22.666666666666668;0.412428072628323;0.249812453113278
0.00334;0.800399201596806;22.666666666666668;0.412643540848478;0.25037481259370314
0.00335;0.800995024875622;22.666666666666668;0.412858069898952;0.250936329588015
0.00336;0.8015873015873016;22.666666666666668;0.413071664309288;0.25149700598802394
0.00337;0.80217606330366;22.666666666666668;0.413284328612147;0.25205684367988
0.00338;0.80276134122288;22.666666666666668;0.413496067342221;0.252615844544096
0.00339;0.803343166175025;22.666666666666668;0.413706885035185;0.253174010455564
0.0034;0.803921568627451;22.666666666666668;0.413916786226686;0.2537313432835821
0.00341;0.804496578690127;22.666666666666668;0.414125775451374;0.254287844891872
0.00342;0.8050682261208577;22.666666666666668;0.414333857241975;0.254843517138599
0.00343;0.805636540330418;22.666666666666668;0.414541036128392;0.255398361876396
0.00344;0.806201550387597;22.666666666666668;0.414747316636851;0.25595238095238093
0.00345;0.8067632850241546;22.666666666666668;0.414952703289074;0.25650557620817843
0.00346;0.807321772639692;22.666666666666668;0.415157200601487;0.257057949479941
0.00347;0.807877041306436;22.666666666666668;0.415360813084464;0.257609502598367
0.00348;0.808429118773946;22.666666666666668;0.415563545241597;0.258160237388724
0.00349;0.808978032473735;22.666666666666668;0.415765401568996;0.258710155670867
