MonitorID,Name,Coordinates,StoragePath
17003,TRF - Borgerio 2018 - Carrefour,"51.223799, 4.446073",/home/vincent/storage/BorgerRio2018
17027,TRF - Borgerio 2018 - Bar Bakeliet,"51.223799, 4.446073",/home/vincent/storage/BorgerRio2018
17029,TRF - Borgerio 2018 - Panos,"51.223799, 4.446073",/home/vincent/storage/BorgerRio2018

